hyperparameter-tuning
…
Dial ranges

I am tuning “mtry” to limit the model complexity through limts on the number of predictors implemented at each split of my rf model. I am also fitting the “min_n” which allows me to minimize the number of observations at each node. Ultimately both of these hyperparameters can limit the risk of overfitting with my model.

Check the skill of tuned model

#collect_metrics, Showbest, describe in plain language the interpretation of these

collect_metrics(model_params) %>%
  arrange(.metric == "mae")

# A tibble: 60 × 8
    mtry min_n .metric .estimator  mean     n std_err .config              
   <int> <int> <chr>   <chr>      <dbl> <int>   <dbl> <chr>                
 1     1    13 rmse    standard   0.485    10  0.0331 Preprocessor1_Model01
 2     1    13 rsq     standard   0.835    10  0.0165 Preprocessor1_Model01
 3     1    36 rmse    standard   0.486    10  0.0336 Preprocessor1_Model02
 4     1    36 rsq     standard   0.835    10  0.0159 Preprocessor1_Model02
 5     1    30 rmse    standard   0.484    10  0.0339 Preprocessor1_Model03
 6     1    30 rsq     standard   0.835    10  0.0161 Preprocessor1_Model03
 7     1    18 rmse    standard   0.482    10  0.0337 Preprocessor1_Model04
 8     1    18 rsq     standard   0.837    10  0.0166 Preprocessor1_Model04
 9     1    21 rmse    standard   0.479    10  0.0336 Preprocessor1_Model05
10     1    21 rsq     standard   0.838    10  0.0161 Preprocessor1_Model05
# ℹ 50 more rows
…
